<svg width="40" height="40" viewBox="0 0 40 40" fill="none" xmlns="http://www.w3.org/2000/svg">
<path d="M39.0541 9.85081C39.5107 8.51294 39.5216 6.84591 39.5216 4.84972C39.5216 2.85354 40 0.84673 36.2489 0.188413C32.4977 -0.480523 5.29372 0.84673 5.29372 0.84673C5.29372 0.84673 2.47764 1.50505 3.88024 5.17888L5.89173 5.86905C5.53292 4.94529 5.70689 3.53309 5.94609 3.05528C6.12006 2.70488 11.0129 2.58809 11.1651 2.52438C19.3306 3.05528 23.7233 1.8873 30.8015 1.8873C32.9 1.8873 34.1395 2.03595 34.8136 2.15275C37.1513 2.56685 37.5319 4.425 37.5319 4.64798C37.5319 6.42119 37.6623 8.62974 37.26 9.79772C35.3681 19.2159 37.4775 29.0057 37.4775 32.0425C37.4775 33.667 37.945 35.3341 37.2057 36.0242C36.2489 36.9374 35.89 37.1391 34.2156 37.1391C33.7372 37.1391 31.443 36.8206 26.8438 37.2984C16.7646 38.3496 5.21761 36.3959 4.69571 35.6314C3.93461 34.5271 3.60842 30.5772 3.82588 29.4304C4.07596 28.1457 5.13063 26.2769 5.13063 24.4506C5.13063 22.9747 5.27197 20.6069 4.91317 18.6107C4.44563 15.9774 2.532 12.9194 2.79295 10.7533C3.15176 7.69535 4.20643 6.35748 4.27167 6.33625C4.24992 6.34687 4.23905 6.34687 4.23905 6.34687C4.23905 6.34687 1.54257 5.84782 1.07504 9.85081C0.607502 13.8432 2.47764 19.853 2.47764 23.187C2.47764 26.5211 1.54257 28.1881 1.54257 31.1824C1.54257 34.1767 4.35865 36.8418 4.35865 37.5108C4.35865 38.1797 4.82618 38.8486 7.64226 38.8486C10.4583 38.8486 26.8655 39.1778 30.6167 39.1778C34.3678 39.1778 40 40.1759 40 33.5078C40 26.8396 38.5974 11.1781 39.0541 9.85081Z" fill="#3A8DDE"/>
<path d="M25.4414 4.42224C25.4414 4.42224 18.8938 4.20037 17.9959 5.9859C17.0981 7.77144 16.5068 8.22574 16.5068 10.0113C16.5068 11.7968 15.9046 17.6183 16.2112 20.3019C16.5178 22.9854 15.609 24.9928 16.2112 28.3526C16.8134 31.7123 16.2112 32.1561 16.2112 33.9416C16.2112 35.7272 19.1894 35.949 20.3719 35.7272C21.0946 35.5898 21.7406 35.1883 22.1676 34.6072C22.1676 34.6072 22.1676 19.4038 22.4632 16.7202C22.7589 14.0366 21.5764 14.4804 23.0545 12.2511C24.5327 10.0218 25.4414 8.89135 29.0109 9.56753C30.4562 9.84223 30.5 7.54956 30.5 6.42965V4.42224H25.4414Z" fill="#3E8EDE"/>
<path d="M12.5047 16.2402L12.795 20.1058C12.795 20.1058 17.6544 18.5706 19.6002 19.178C21.5461 19.7855 25.0939 19.7965 26.04 19.7413C26.986 19.6861 26.1797 15.3455 26.1797 15.3455C26.1797 15.3455 14.2786 14.6497 13.3325 14.716C12.3865 14.7823 12.5047 16.2402 12.5047 16.2402Z" fill="#3A8DDE"/>
</svg>
